ISSS608 - Sherinah Rashid - Mini Challenge 2 - VAST Challenge 2023
…
Show code

challenge_graph <- fromJSON("data/mc2_challenge_graph.json")

The data is in list format but we need to change it into a tabular format. We also will use the select() function to reorganise the structure of the dataset. This is first done for the nodes in the dataset. We will use the select function to choose the columns we need, as well as re-organise the order of columns.

Show code

MC2_nodes <- as_tibble(challenge_graph$nodes) %>%
  select(id, shpcountry, rcvcountry)
MC2_nodes

# A tibble: 34,576 × 3
   id                                shpcountry rcvcountry
   <chr>                             <chr>      <chr>     
 1 AquaDelight Inc and Son's         Polarinda  Oceanus   
 2 BaringoAmerica Marine Ges.m.b.H.  <NA>       <NA>      
 3 Yu gan  Sea spray GmbH Industrial Oceanus    Oceanus   
 4 FlounderLeska Marine BV           <NA>       <NA>      
 5 Olas del Mar Worldwide            Oceanus    Oceanus   
 6 French Crab S.p.A. Worldwide      Kondanovia Utoporiana
 7 KisumuSeafood Brothers Ltd        <NA>       <NA>      
 8 Panope Limited Liability Company  Vesperanda Oceanus   
 9 hǎi dǎn Corporation Wharf         Marebak    Oceanus   
10 NamRiver Transit A/S              <NA>       <NA>      
# ℹ 34,566 more rows
…
